<?xml version="1.0" encoding="utf-8"?>
<!-- Generator: Adobe Illustrator 22.1.0, SVG Export Plug-In . SVG Version: 6.00 Build 0)  -->
<svg version="1.1" id="Layer_1" xmlns="http://www.w3.org/2000/svg" xmlns:xlink="http://www.w3.org/1999/xlink" x="0px" y="0px"
	 viewBox="0 0 1920 601" style="enable-background:new 0 0 1920 601;" xml:space="preserve">
<style type="text/css">
	.st0{fill:#FFFFFF;}
</style>
<g>
	<path class="st0" d="M558.9,183v54.6h-9.5V120.4h42.2c23.1,0,35.4,12.4,35.4,30.8c0,14.9-8.9,24.6-21.8,27.5
		c11.9,2.8,20,10.7,20,30.6v4.5c0,8.2-0.7,19.2,1.5,23.7h-9.5c-2.2-5-1.7-14.4-1.7-24.5v-3c0-19.1-5.6-27.1-28-27.1H558.9z
		 M558.9,174.4H587c20.4,0,29.9-7.6,29.9-22.9c0-14.3-9.3-22.4-27.4-22.4h-30.6V174.4z"/>
	<path class="st0" d="M710.3,197.4l-14.8,40.2H686L729,120.4h11.2l44.8,117.2h-10.2l-15.1-40.2H710.3z M756.5,188.7
		c-13-34.6-19.6-51.3-22-59.2h-0.2c-2.8,8.9-10.3,29.6-20.8,59.2H756.5z"/>
	<path class="st0" d="M849,120.4h42c21.5,0,36.3,11.9,36.3,32.7c0,21.2-14.7,33.6-37.4,33.6h-31.3v50.9H849V120.4z M858.6,178.1h32
		c18.8,0,26.6-9.9,26.6-24.6c0-15.7-10.3-24.4-26-24.4h-32.7V178.1z"/>
	<path class="st0" d="M1004.5,120.4v117.2h-9.4V120.4H1004.5z"/>
	<path class="st0" d="M1080.7,120.4h39c32.2,0,54.4,22.4,54.4,57.6c0,35-21.8,59.6-54.6,59.6h-38.8V120.4z M1090,229h28.1
		c30.8,0,45.9-21.6,45.9-50.5c0-25.6-13.6-49.4-45.9-49.4H1090V229z"/>
	<path class="st0" d="M1341.9,178.2c0,32-17.1,61.1-53.3,61.1c-33.1,0-52.3-26.6-52.3-60.3c0-33.2,18.6-60.3,53.5-60.3
		C1321.9,118.8,1341.9,144,1341.9,178.2z M1246.3,178.5c0,26.9,14.8,52.1,42.8,52.1c30.1,0,42.7-24.6,42.7-52.3
		c0-27.2-14.3-51-42.4-51C1259.4,127.4,1246.3,152.1,1246.3,178.5z"/>
</g>
<g>
	<path class="st0" d="M624.2,458.7c-2.4,8-8.3,14-18.9,14c-14.5,0-22.1-11.5-22.1-25.7c0-13.6,7.5-26,22.2-26
		c10.9,0,17.3,6,18.9,14.5h-3.9c-2.3-6.6-6.6-10.9-15.3-10.9c-12.5,0-17.8,11.4-17.8,22.3c0,10.8,5.2,22.2,18.1,22.2
		c8.2,0,12.4-4.2,14.9-10.4H624.2z"/>
	<path class="st0" d="M635.1,421.8h3.9v46.8h27.1l-0.7,3.6h-30.2V421.8z"/>
	<path class="st0" d="M714.7,446.6c0,13.8-7.3,26.3-22.9,26.3c-14.2,0-22.5-11.4-22.5-25.9c0-14.3,8-25.9,23-25.9
		C706.1,421.1,714.7,432,714.7,446.6z M673.5,446.8c0,11.6,6.4,22.5,18.5,22.5c13,0,18.5-10.7,18.5-22.6c0-11.7-6.2-22-18.4-22
		C679.2,424.7,673.5,435.4,673.5,446.8z"/>
	<path class="st0" d="M734.8,425.4h-16.9v-3.6h37.9v3.6h-17v46.8h-4V425.4z"/>
	<path class="st0" d="M763.3,421.8h3.9v22h30.2v-22h3.9v50.4h-3.9v-24.8h-30.2v24.8h-3.9V421.8z"/>
	<path class="st0" d="M820,421.8v50.4h-3.9v-50.4H820z"/>
	<path class="st0" d="M834.8,472.2v-50.4h5.8c7.8,12.1,26.3,40.3,29.5,45.7h0.1c-0.4-7.3-0.4-14.7-0.4-22.9v-22.8h4v50.4h-5.3
		c-7.5-11.7-26.2-41-29.8-46.5h-0.1c0.4,6.6,0.3,14,0.3,23.1v23.4H834.8z"/>
	<path class="st0" d="M926.7,472.2h-3.2c-0.3-0.6-0.4-3.2-0.5-8.1c-1.8,3.5-5.8,8.6-16.3,8.6c-14.5,0-21.9-11-21.9-25.3
		c0-15,7.9-26.4,22.7-26.4c10.9,0,18.1,5.7,19.7,15h-3.9c-2.2-7.1-7.1-11.4-15.9-11.4c-12.6,0-18.4,9.8-18.4,22.5
		c0,11.5,5.5,22,17.9,22c12.6,0,16.1-8.2,16.1-19.4v-0.6h-16.3v-3.6h20V472.2z"/>
	<path class="st0" d="M957.9,421.8h16.7c13.8,0,23.4,9.6,23.4,24.8c0,15-9.4,25.6-23.5,25.6h-16.6V421.8z M961.8,468.6h12.2
		c13.3,0,19.9-9.4,19.9-21.8c0-11.1-5.9-21.4-19.9-21.4h-12.2V468.6z"/>
	<path class="st0" d="M1038.7,447.4H1013v21.2h28.2l-0.6,3.6h-31.5v-50.4h30.9v3.6h-27v18.4h25.7V447.4z"/>
	<path class="st0" d="M1051,472.2v-50.4h5.8c7.8,12.1,26.3,40.3,29.5,45.7h0.1c-0.4-7.3-0.4-14.7-0.4-22.9v-22.8h4v50.4h-5.3
		c-7.5-11.7-26.2-41-29.8-46.5h-0.1c0.4,6.6,0.3,14,0.3,23.1v23.4H1051z"/>
	<path class="st0" d="M1148.4,449c0-9.9,0.1-19.3,0.3-24.3h-0.2c-2,6.8-12.2,31.6-18.6,47.5h-3.8c-4.8-12.3-15.4-40-17.7-47.6h-0.1
		c0.4,5.8,0.5,17.5,0.5,26.1v21.5h-3.9v-50.4h5.8c6.9,17.3,15.6,39.9,17.5,45.6h0.1c1.2-3.7,11.2-28.8,18.3-45.6h5.8v50.4h-3.9V449z
		"/>
	<path class="st0" d="M1171.6,454.8l-6.4,17.4h-4l18.5-50.4h4.6l19.3,50.4h-4.2l-6.6-17.4H1171.6z M1191.5,451.2
		c-5.6-15-8.5-22.2-9.5-25.6h-0.1c-1.2,3.8-4.5,12.7-9,25.6H1191.5z"/>
	<path class="st0" d="M1216.5,448.7v23.5h-4v-50.4h18.1c9.9,0,15.2,5.3,15.2,13.2c0,6.4-3.8,10.6-9.4,11.8c5.2,1.2,8.6,4.6,8.6,13.2
		v1.9c0,3.5-0.3,8.3,0.6,10.2h-4c-0.9-2.2-0.7-6.2-0.7-10.5v-1.3c0-8.3-2.4-11.7-12.1-11.7H1216.5z M1216.5,445.1h12.2
		c8.9,0,13-3.3,13-9.9c0-6.2-4-9.7-11.9-9.7h-13.2V445.1z"/>
	<path class="st0" d="M1258.1,421.8h3.9V448c4-3.9,18.4-17.4,27.4-26.2h5.2l-22.6,21.5l23.9,28.9h-4.8l-21.9-26.4l-7.2,6.3v20.1
		h-3.9V421.8z"/>
</g>
<rect x="52.8" y="331.5" class="st0" width="755.7" height="4.5"/>
<rect x="1102" y="332" class="st0" width="755.7" height="4.5"/>
<g>
	<path class="st0" d="M928.5,325.7c7.3,7.3,0.3,26.1-7,33.4c-7.3,7.3-6.2-12.1-13.5-19.4c-7.3-7.3-24.7,4.8-12.9-7
		C902.3,325.4,921.2,318.4,928.5,325.7"/>
	<path class="st0" d="M953.2,324.6c-7.3,7.3-26.1,0.3-33.4-7c-7.6-7.6,11.8-6.5,19.1-13.8c7.3-7.3-4.8-24.7,7-12.9
		C953.5,298.5,960.5,317.3,953.2,324.6"/>
	<path class="st0" d="M954.6,349.3c-7.3-7.3-0.3-26.1,7-33.4c7.3-7.3,6.2,12.1,13.5,19.4c7.3,7.3,24.7-4.8,12.9,7
		C980.7,349.9,961.9,356.6,954.6,349.3"/>
	<path class="st0" d="M929.9,350.7c7.3-7.3,26.1-0.3,33.4,7c7.3,7.3-12.1,6.2-19.4,13.5c-7.3,7.3,4.8,24.7-7,12.9
		C929.6,376.8,922.6,358,929.9,350.7"/>
</g>
<polygon style="fill:none;" points="693.7,1536.3 690.2,1536.3 690.2,1536.3 693.7,1536.3 "/>
</svg>
