2019-02-28 12:50:03.190: Starting job - XML bikes.
2019-02-28 12:50:03.394: Start checking input files changing
2019-02-28 12:50:08.406: Finish checking input files changing
2019-02-28 12:50:08.423: reading configuration
2019-02-28 12:50:10.723: Starting import to temporary table for EcomProducts.
2019-02-28 12:50:10.789: Added 1 rows to temporary table for EcomProducts.
2019-02-28 12:50:10.789: Finished import to temporary table for EcomProducts.
2019-02-28 12:50:10.789: Starting update products information.
2019-02-28 12:50:10.882: Update products information completed.
2019-02-28 12:50:11.715: Finished job - XML bikes.
2019-02-28 12:50:11.715: Batch succeeded.
